{
  "name": "backend",
  "version": "1.0.0",
  "description": "Todo App",
  "main": "server.js",
  "type": "module",
  "scripts": {
    "start": "npx nodemon server.js"
  },
  "keywords": [
    "Todo",
    "App"
  ],
  "author": "HOMM BİTKİSEL",
  "license": "ISC",
  "dependencies": {
    "@hapi/joi": "^17.1.1",
    "bcryptjs": "^2.4.3",
    "cors": "^2.8.5",
    "dotenv": "^16.3.1",
    "express": "^4.18.2",
    "jsonwebtoken": "^9.0.2",
    "mongoose": "^7.5.2"
  }
}
